\relax 
\providecommand\hyper@newdestlabel[2]{}
\providecommand\HyperFirstAtBeginDocument{\AtBeginDocument}
\HyperFirstAtBeginDocument{\ifx\hyper@anchor\@undefined
\global\let\oldcontentsline\contentsline
\gdef\contentsline#1#2#3#4{\oldcontentsline{#1}{#2}{#3}}
\global\let\oldnewlabel\newlabel
\gdef\newlabel#1#2{\newlabelxx{#1}#2}
\gdef\newlabelxx#1#2#3#4#5#6{\oldnewlabel{#1}{{#2}{#3}}}
\AtEndDocument{\ifx\hyper@anchor\@undefined
\let\contentsline\oldcontentsline
\let\newlabel\oldnewlabel
\fi}
\fi}
\global\let\hyper@last\relax 
\gdef\HyperFirstAtBeginDocument#1{#1}
\providecommand\HyField@AuxAddToFields[1]{}
\providecommand\HyField@AuxAddToCoFields[2]{}
\citation{matz2014effects}
\citation{predict_indoor}
\@writefile{toc}{\contentsline {section}{Abstract}{1}{section*.1}\protected@file@percent }
\@writefile{toc}{\contentsline {section}{\numberline {1}INTRODUCTION}{1}{section.1}\protected@file@percent }
\citation{zhang2016litell,van2014camera}
\citation{langlois2017indoor}
\citation{yuan2014localization}
\citation{mirshekari2018occupant}
\citation{hu2018lightitude,zhu2017enabling}
\citation{ni2003landmarc,jin2006indoor,wang2013dude,wang2013rf}
\citation{adib15:NSDI:multi,gjengset14:MobiCom:phaser,xiong2013arraytrack,vasisht16:NSDI:decimeter,xiong15:MobiCom:tonetrack,qian2018:mobisys:widar2,joshi:NSDI:2015wideo,soltanaghaei18:MobiSys:multipath,kotaru15:SIGCOMM:spotfi,wang16:mobicom:lifs}
\citation{vasisht18:IMWUT:duet,zhao2019mid,gu19:MNSS:mmsense,pegoraro20::multi}
\citation{lin19:MobiCom:rebooting,cheng20:INFOCOM:acouradar,mao16:MobiCom:cat,nandakumar17:IMWUT:covertband,peng2012beepbeep,zhou17:ENS:battracker,zhang2018vernier,liu2015guoguo}
\citation{gupta12:HFCS:soundwave,nandakumar2016fingerio,mao19:MobiCom:rnn,yun17:MobiSys:strata,chen2017echotrack,wang2016device,wang20:push}
\citation{yuan2014localization}
\citation{fourati2014heterogeneous}
\citation{zhang2016litell,van2014camera,xu::xuedge,bowman17:ICRA:probabilistic}
\citation{taketomi2017visual}
\citation{orr2000smart,mirshekari2018occupant}
\citation{kuo2014luxapose,gao2015sextant,xie2016lips,wei2017celli,liu2017smartlight,hu2018lightitude}
\citation{ni2003landmarc,jin2006indoor,wang2013dude,wang2013rf}
\citation{Chen20:InfoCom:TagRay,Yang20:InfoCom:RF-Ear}
\citation{adib15:NSDI:multi,gjengset14:MobiCom:phaser,xiong2013arraytrack,vasisht16:NSDI:decimeter,xiong15:MobiCom:tonetrack,qian2018:mobisys:widar2,joshi:NSDI:2015wideo,soltanaghaei18:MobiSys:multipath,kotaru15:SIGCOMM:spotfi,wang16:mobicom:lifs}
\citation{vasisht18:IMWUT:duet,zhao2019mid,gu19:MNSS:mmsense,pegoraro20::multi}
\citation{lin19:MobiCom:rebooting,cheng20:INFOCOM:acouradar,mao16:MobiCom:cat,peng2012beepbeep,zhou17:ENS:battracker,zhang2018vernier,liu2015guoguo}
\citation{gupta12:HFCS:soundwave,nandakumar2016fingerio,mao19:MobiCom:rnn,chen2017echotrack,wang2016device,wang20:push}
\citation{zhang17:CCS:hearing}
\citation{lu18:infocom:lippass}
\citation{chauhan17:MSAS:breathprint}
\citation{nandakumar17:IMWUT:covertband}
\citation{yun17:MobiSys:strata}
\citation{shen2020voice}
\@writefile{toc}{\contentsline {section}{\numberline {2}RELATED WORK}{3}{section.2}\protected@file@percent }
\@writefile{toc}{\contentsline {section}{\numberline {3}SYSTEM DESIGN}{4}{section.3}\protected@file@percent }
\newlabel{sec:sys_des}{{3}{4}{SYSTEM DESIGN}{section.3}{}}
\citation{shannon1949communication}
\citation{sorrentino2012accurate,brugger2010fmcw}
\@writefile{lof}{\contentsline {figure}{\numberline {1}{\ignorespaces The workflow of EchoSpot.\relax }}{5}{figure.caption.2}\protected@file@percent }
\providecommand*\caption@xref[2]{\@setref\relax\@undefined{#1}}
\newlabel{systemdesign}{{1}{5}{The workflow of EchoSpot.\relax }{figure.caption.2}{}}
\@writefile{toc}{\contentsline {subsection}{\numberline {3.1}System Overview}{5}{subsection.3.1}\protected@file@percent }
\@writefile{toc}{\contentsline {subsection}{\numberline {3.2}Signal Generation}{5}{subsection.3.2}\protected@file@percent }
\citation{schroeder2010x}
\newlabel{eq2}{{2}{6}{Signal Generation}{equation.3.2}{}}
\newlabel{eq_d}{{3}{6}{Signal Generation}{equation.3.3}{}}
\newlabel{basic}{{5}{6}{Signal Generation}{equation.3.5}{}}
\citation{graham2015software}
\@writefile{lof}{\contentsline {figure}{\numberline {2}{\ignorespaces Autcorrelation of the windowed signal, with less sidelobes.\relax }}{7}{figure.caption.3}\protected@file@percent }
\newlabel{windowed}{{2}{7}{Autcorrelation of the windowed signal, with less sidelobes.\relax }{figure.caption.3}{}}
\@writefile{lof}{\contentsline {figure}{\numberline {3}{\ignorespaces Autcorrelation of the unwindowed signal, with many sidelobes.\relax }}{7}{figure.caption.3}\protected@file@percent }
\newlabel{unwindowed}{{3}{7}{Autcorrelation of the unwindowed signal, with many sidelobes.\relax }{figure.caption.3}{}}
\@writefile{toc}{\contentsline {subsection}{\numberline {3.3}TOF Profile Generation}{7}{subsection.3.3}\protected@file@percent }
\newlabel{TOF Profile Generation}{{3.3}{7}{TOF Profile Generation}{subsection.3.3}{}}
\newlabel{correlation}{{6}{7}{TOF Profile Generation}{equation.3.6}{}}
\newlabel{delay}{{7}{7}{TOF Profile Generation}{equation.3.7}{}}
\citation{hahn1996hilbert}
\@writefile{lof}{\contentsline {figure}{\numberline {4}{\ignorespaces TOF profile after eliminating the time error.\relax }}{8}{figure.caption.4}\protected@file@percent }
\newlabel{example2}{{4}{8}{TOF profile after eliminating the time error.\relax }{figure.caption.4}{}}
\@writefile{lof}{\contentsline {figure}{\numberline {5}{\ignorespaces Denoised TOF profile, where strong peaks represents the human reflection. Some other multipath reflections from the human also remain.\relax }}{8}{figure.caption.4}\protected@file@percent }
\newlabel{pure}{{5}{8}{Denoised TOF profile, where strong peaks represents the human reflection. Some other multipath reflections from the human also remain.\relax }{figure.caption.4}{}}
\@writefile{lof}{\contentsline {figure}{\numberline {6}{\ignorespaces Example of cross correlation. 0.10763 and 0.20905 indicate the start time error and its corresponding peak value.\relax }}{9}{figure.caption.5}\protected@file@percent }
\newlabel{example}{{6}{9}{Example of cross correlation. 0.10763 and 0.20905 indicate the start time error and its corresponding peak value.\relax }{figure.caption.5}{}}
\@writefile{lof}{\contentsline {figure}{\numberline {7}{\ignorespaces Example of TOF profile, where the peaks refer to the reflections in the environment.\relax }}{9}{figure.caption.5}\protected@file@percent }
\newlabel{example5}{{7}{9}{Example of TOF profile, where the peaks refer to the reflections in the environment.\relax }{figure.caption.5}{}}
\@writefile{toc}{\contentsline {subsection}{\numberline {3.4}Localization}{9}{subsection.3.4}\protected@file@percent }
\newlabel{sec:localization}{{3.4}{9}{Localization}{subsection.3.4}{}}
\@writefile{lof}{\contentsline {figure}{\numberline {8}{\ignorespaces Location model, R indicate the people and S indicate the speaker.\relax }}{10}{figure.caption.6}\protected@file@percent }
\newlabel{wall}{{8}{10}{Location model, R indicate the people and S indicate the speaker.\relax }{figure.caption.6}{}}
\@writefile{lof}{\contentsline {figure}{\numberline {9}{\ignorespaces Different reflection path when the signal reflect from the body, where d is the shortest path, b is the longest path, and h is the height of speaker.\relax }}{10}{figure.caption.6}\protected@file@percent }
\newlabel{reflection}{{9}{10}{Different reflection path when the signal reflect from the body, where d is the shortest path, b is the longest path, and h is the height of speaker.\relax }{figure.caption.6}{}}
\@writefile{lof}{\contentsline {figure}{\numberline {10}{\ignorespaces Reflection from body and wall, the second peak is the reflection from the wall.\relax }}{10}{figure.caption.6}\protected@file@percent }
\newlabel{sample4}{{10}{10}{Reflection from body and wall, the second peak is the reflection from the wall.\relax }{figure.caption.6}{}}
\newlabel{solution}{{9}{10}{Localization}{equation.3.9}{}}
\citation{welch1995introduction}
\citation{lakoba2005modifications}
\@writefile{toc}{\contentsline {subsection}{\numberline {3.5}Correcting the Location}{11}{subsection.3.5}\protected@file@percent }
\citation{kotaru15:SIGCOMM:spotfi,xiong2013arraytrack}
\@writefile{toc}{\contentsline {section}{\numberline {4}PERFORMANCE EVALUATION}{12}{section.4}\protected@file@percent }
\newlabel{sec:performance}{{4}{12}{PERFORMANCE EVALUATION}{section.4}{}}
\@writefile{toc}{\contentsline {subsection}{\numberline {4.1}Experiments}{12}{subsection.4.1}\protected@file@percent }
\@writefile{lof}{\contentsline {figure}{\numberline {11}{\ignorespaces Averaged localization errors at $1m, 2m, 3m, 4m$ and $5m$.\relax }}{13}{figure.caption.7}\protected@file@percent }
\newlabel{Distance}{{11}{13}{Averaged localization errors at $1m, 2m, 3m, 4m$ and $5m$.\relax }{figure.caption.7}{}}
\@writefile{lof}{\contentsline {figure}{\numberline {12}{\ignorespaces Tracking the moving trajectory of a person, where the red lines indicate the predefined rectangle trajectory, serving as the ground truth, while the irregular blue curve represents the measured trajectory by our EchoSpot.\relax }}{13}{figure.caption.7}\protected@file@percent }
\newlabel{Rectangle}{{12}{13}{Tracking the moving trajectory of a person, where the red lines indicate the predefined rectangle trajectory, serving as the ground truth, while the irregular blue curve represents the measured trajectory by our EchoSpot.\relax }{figure.caption.7}{}}
\@writefile{lof}{\contentsline {figure}{\numberline {13}{\ignorespaces Locating a static person at different reference points, where the red points indicate the reference points and the blue points represent the spotted location by our EchoSpot.\relax }}{13}{figure.caption.7}\protected@file@percent }
\newlabel{points}{{13}{13}{Locating a static person at different reference points, where the red points indicate the reference points and the blue points represent the spotted location by our EchoSpot.\relax }{figure.caption.7}{}}
\@writefile{toc}{\contentsline {subsection}{\numberline {4.2}Performance of Localization}{13}{subsection.4.2}\protected@file@percent }
\@writefile{lof}{\contentsline {figure}{\numberline {14}{\ignorespaces CDF for Trajectory Error and Localization Error.\relax }}{14}{figure.caption.8}\protected@file@percent }
\newlabel{CDF}{{14}{14}{CDF for Trajectory Error and Localization Error.\relax }{figure.caption.8}{}}
\@writefile{lof}{\contentsline {figure}{\numberline {15}{\ignorespaces Impact of the speaker separation.\relax }}{14}{figure.caption.8}\protected@file@percent }
\newlabel{sepration}{{15}{14}{Impact of the speaker separation.\relax }{figure.caption.8}{}}
\@writefile{lof}{\contentsline {figure}{\numberline {16}{\ignorespaces Impact of the device heights.\relax }}{14}{figure.caption.8}\protected@file@percent }
\newlabel{height}{{16}{14}{Impact of the device heights.\relax }{figure.caption.8}{}}
\@writefile{toc}{\contentsline {subsection}{\numberline {4.3}Impact of Device Placement}{14}{subsection.4.3}\protected@file@percent }
\newlabel{placement}{{4.3}{14}{Impact of Device Placement}{subsection.4.3}{}}
\@writefile{lof}{\contentsline {figure}{\numberline {17}{\ignorespaces Impact of the moving speed.\relax }}{15}{figure.caption.9}\protected@file@percent }
\newlabel{speed}{{17}{15}{Impact of the moving speed.\relax }{figure.caption.9}{}}
\@writefile{lof}{\contentsline {figure}{\numberline {18}{\ignorespaces Impact of different environments.\relax }}{15}{figure.caption.9}\protected@file@percent }
\newlabel{room}{{18}{15}{Impact of different environments.\relax }{figure.caption.9}{}}
\@writefile{lof}{\contentsline {figure}{\numberline {19}{\ignorespaces Impact of the Kalman filter.\relax }}{15}{figure.caption.9}\protected@file@percent }
\newlabel{Kalman}{{19}{15}{Impact of the Kalman filter.\relax }{figure.caption.9}{}}
\@writefile{toc}{\contentsline {subsection}{\numberline {4.4}Impact of Moving Speed}{15}{subsection.4.4}\protected@file@percent }
\newlabel{sec_speed}{{4.4}{15}{Impact of Moving Speed}{subsection.4.4}{}}
\@writefile{toc}{\contentsline {subsection}{\numberline {4.5}Performance at Different Room Layout}{15}{subsection.4.5}\protected@file@percent }
\@writefile{toc}{\contentsline {subsection}{\numberline {4.6}Impact of Different Devices}{15}{subsection.4.6}\protected@file@percent }
\@writefile{lof}{\contentsline {figure}{\numberline {20}{\ignorespaces Spectrum in the human talking environment.\relax }}{16}{figure.caption.10}\protected@file@percent }
\newlabel{talk}{{20}{16}{Spectrum in the human talking environment.\relax }{figure.caption.10}{}}
\@writefile{lof}{\contentsline {figure}{\numberline {21}{\ignorespaces Spectrum in the environment playing normal music.\relax }}{16}{figure.caption.10}\protected@file@percent }
\newlabel{music}{{21}{16}{Spectrum in the environment playing normal music.\relax }{figure.caption.10}{}}
\@writefile{lof}{\contentsline {figure}{\numberline {22}{\ignorespaces Spectrum in the environment playing rock music.\relax }}{16}{figure.caption.10}\protected@file@percent }
\newlabel{rock}{{22}{16}{Spectrum in the environment playing rock music.\relax }{figure.caption.10}{}}
\@writefile{lof}{\contentsline {figure}{\numberline {23}{\ignorespaces Spectrum in the environment washing the utensils.\relax }}{16}{figure.caption.10}\protected@file@percent }
\newlabel{wash}{{23}{16}{Spectrum in the environment washing the utensils.\relax }{figure.caption.10}{}}
\@writefile{toc}{\contentsline {subsection}{\numberline {4.7}Impact of Noise}{16}{subsection.4.7}\protected@file@percent }
\@writefile{toc}{\contentsline {subsection}{\numberline {4.8}Impact of Location Correction Module}{16}{subsection.4.8}\protected@file@percent }
\newlabel{subsec:discussion}{{4.8}{16}{Impact of Location Correction Module}{figure.caption.10}{}}
\@writefile{toc}{\contentsline {section}{\numberline {5}Discussions}{16}{section.5}\protected@file@percent }
\citation{oohashi2000inaudible}
\citation{fletcher2018effects,leighton2016some}
\citation{wixey2020feasibility}
\@writefile{lof}{\contentsline {figure}{\numberline {24}{\ignorespaces Impact of the device.\relax }}{17}{figure.caption.11}\protected@file@percent }
\newlabel{device}{{24}{17}{Impact of the device.\relax }{figure.caption.11}{}}
\@writefile{lof}{\contentsline {figure}{\numberline {25}{\ignorespaces Impact of the noise.\relax }}{17}{figure.caption.11}\protected@file@percent }
\newlabel{noise}{{25}{17}{Impact of the noise.\relax }{figure.caption.11}{}}
\citation{SpeedofSound}
\bibstyle{ACM-Reference-Format}
\bibdata{ref}
\bibcite{adib15:NSDI:multi}{{1}{2015}{{Adib et~al\mbox  {.}}}{{Adib, Kabelac, and Katabi}}}
\bibcite{bowman17:ICRA:probabilistic}{{2}{2017}{{Bowman et~al\mbox  {.}}}{{Bowman, Atanasov, Daniilidis, and Pappas}}}
\bibcite{brugger2010fmcw}{{3}{2010}{{Brugger et~al\mbox  {.}}}{{Brugger, Christ, Kemeth, Nagy, Schaefer, and Pietrzyk}}}
\bibcite{chauhan17:MSAS:breathprint}{{4}{2017}{{Chauhan et~al\mbox  {.}}}{{Chauhan, Hu, Seneviratne, Misra, Seneviratne, and Lee}}}
\bibcite{chen2017echotrack}{{5}{2017}{{Chen et~al\mbox  {.}}}{{Chen, Li, and Wang}}}
\bibcite{Chen20:InfoCom:TagRay}{{6}{2020}{{Chen et~al\mbox  {.}}}{{Chen, Yang, Xiong, Feng, and Li}}}
\bibcite{cheng20:INFOCOM:acouradar}{{7}{2020}{{Cheng et~al\mbox  {.}}}{{Cheng, Wang, Zhang, Wang, Xu, and Wang}}}
\bibcite{fletcher2018effects}{{8}{2018}{{Fletcher et~al\mbox  {.}}}{{Fletcher, Lloyd~Jones, White, Dolder, Leighton, and Lineton}}}
\@writefile{toc}{\contentsline {section}{\numberline {6}CONCLUSION}{18}{section.6}\protected@file@percent }
\newlabel{sec:conclude}{{6}{18}{CONCLUSION}{section.6}{}}
\@writefile{toc}{\contentsline {section}{References}{18}{section*.14}\protected@file@percent }
\bibcite{SpeedofSound}{{9}{[n.d.]}{{for Nondestructive~Evaluation}}{{for Nondestructive~Evaluation}}}
\bibcite{fourati2014heterogeneous}{{10}{2014}{{Fourati}}{{Fourati}}}
\bibcite{gao2015sextant}{{11}{2015}{{Gao et~al\mbox  {.}}}{{Gao, Tian, Ye, Luo, Bian, Wang, Wang, and Li}}}
\bibcite{gjengset14:MobiCom:phaser}{{12}{2014}{{Gjengset et~al\mbox  {.}}}{{Gjengset, Xiong, McPhillips, and Jamieson}}}
\bibcite{graham2015software}{{13}{2015}{{Graham et~al\mbox  {.}}}{{Graham, Simmons, Nguyen, and Zhou}}}
\bibcite{gu19:MNSS:mmsense}{{14}{2019}{{Gu et~al\mbox  {.}}}{{Gu, Fang, Yang, Hu, and Mohapatra}}}
\bibcite{gupta12:HFCS:soundwave}{{15}{2012}{{Gupta et~al\mbox  {.}}}{{Gupta, Morris, Patel, and Tan}}}
\bibcite{hahn1996hilbert}{{16}{1996}{{Hahn}}{{Hahn}}}
\bibcite{hu2018lightitude}{{17}{2018}{{Hu et~al\mbox  {.}}}{{Hu, Xiong, Huang, Li, Yang, Zhang, and Mao}}}
\bibcite{predict_indoor}{{18}{2017}{{IndustryArc}}{{IndustryArc}}}
\bibcite{jin2006indoor}{{19}{2006}{{Jin et~al\mbox  {.}}}{{Jin, Lu, and Park}}}
\bibcite{joshi:NSDI:2015wideo}{{20}{2015}{{Joshi et~al\mbox  {.}}}{{Joshi, Bharadia, Kotaru, and Katti}}}
\bibcite{kotaru15:SIGCOMM:spotfi}{{21}{2015}{{Kotaru et~al\mbox  {.}}}{{Kotaru, Joshi, Bharadia, and Katti}}}
\bibcite{kuo2014luxapose}{{22}{2014}{{Kuo et~al\mbox  {.}}}{{Kuo, Pannuto, Hsiao, and Dutta}}}
\bibcite{lakoba2005modifications}{{23}{2005}{{Lakoba et~al\mbox  {.}}}{{Lakoba, Kaup, and Finkelstein}}}
\bibcite{langlois2017indoor}{{24}{2017}{{Langlois et~al\mbox  {.}}}{{Langlois, Tiku, and Pasricha}}}
\bibcite{leighton2016some}{{25}{2016}{{Leighton}}{{Leighton}}}
\bibcite{lin19:MobiCom:rebooting}{{26}{2019}{{Lin et~al\mbox  {.}}}{{Lin, An, and Yang}}}
\bibcite{liu2015guoguo}{{27}{2015}{{Liu et~al\mbox  {.}}}{{Liu, Liu, and Li}}}
\bibcite{liu2017smartlight}{{28}{2017}{{Liu and He}}{{Liu and He}}}
\bibcite{lu18:infocom:lippass}{{29}{2018}{{Lu et~al\mbox  {.}}}{{Lu, Yu, Chen, Liu, Zhu, Liu, and Li}}}
\bibcite{mao16:MobiCom:cat}{{30}{2016}{{Mao et~al\mbox  {.}}}{{Mao, He, and Qiu}}}
\bibcite{mao19:MobiCom:rnn}{{31}{2019}{{Mao et~al\mbox  {.}}}{{Mao, Wang, Sun, Qiu, Pradhan, and Chen}}}
\bibcite{matz2014effects}{{32}{2014}{{Matz et~al\mbox  {.}}}{{Matz, Stieb, Davis, Egyed, Rose, Chou, and Brion}}}
\bibcite{mirshekari2018occupant}{{33}{2018}{{Mirshekari et~al\mbox  {.}}}{{Mirshekari, Pan, Fagert, Schooler, Zhang, and Noh}}}
\bibcite{nandakumar2016fingerio}{{34}{2016}{{Nandakumar et~al\mbox  {.}}}{{Nandakumar, Iyer, Tan, and Gollakota}}}
\bibcite{nandakumar17:IMWUT:covertband}{{35}{2017}{{Nandakumar et~al\mbox  {.}}}{{Nandakumar, Takakuwa, Kohno, and Gollakota}}}
\bibcite{ni2003landmarc}{{36}{2003}{{Ni et~al\mbox  {.}}}{{Ni, Liu, Lau, and Patil}}}
\bibcite{oohashi2000inaudible}{{37}{2000}{{Oohashi et~al\mbox  {.}}}{{Oohashi, Nishina, Honda, Yonekura, Fuwamoto, Kawai, Maekawa, Nakamura, Fukuyama, and Shibasaki}}}
\bibcite{orr2000smart}{{38}{2000}{{Orr and Abowd}}{{Orr and Abowd}}}
\bibcite{pegoraro20::multi}{{39}{2020}{{Pegoraro et~al\mbox  {.}}}{{Pegoraro, Meneghello, and Rossi}}}
\bibcite{peng2012beepbeep}{{40}{2012}{{Peng et~al\mbox  {.}}}{{Peng, Shen, and Zhang}}}
\bibcite{qian2018:mobisys:widar2}{{41}{2018}{{Qian et~al\mbox  {.}}}{{Qian, Wu, Zhang, Zhang, Yang, and Liu}}}
\bibcite{schroeder2010x}{{42}{2010}{{Schroeder and Rohling}}{{Schroeder and Rohling}}}
\bibcite{shannon1949communication}{{43}{1949}{{Shannon}}{{Shannon}}}
\bibcite{shen2020voice}{{44}{2020}{{Shen et~al\mbox  {.}}}{{Shen, Chen, Wei, Yang, and Choudhury}}}
\bibcite{soltanaghaei18:MobiSys:multipath}{{45}{2018}{{Soltanaghaei et~al\mbox  {.}}}{{Soltanaghaei, Kalyanaraman, and Whitehouse}}}
\bibcite{sorrentino2012accurate}{{46}{2012}{{Sorrentino et~al\mbox  {.}}}{{Sorrentino, Sbarra, Urbani, Montori, Gatti, and Marcaccioli}}}
\bibcite{taketomi2017visual}{{47}{2017}{{Taketomi et~al\mbox  {.}}}{{Taketomi, Uchiyama, and Ikeda}}}
\bibcite{van2014camera}{{48}{2014}{{Van~Opdenbosch et~al\mbox  {.}}}{{Van~Opdenbosch, Schroth, Huitl, Hilsenbeck, Garcea, and Steinbach}}}
\bibcite{vasisht18:IMWUT:duet}{{49}{2018}{{Vasisht et~al\mbox  {.}}}{{Vasisht, Jain, Hsu, Kabelac, and Katabi}}}
\bibcite{vasisht16:NSDI:decimeter}{{50}{2016}{{Vasisht et~al\mbox  {.}}}{{Vasisht, Kumar, and Katabi}}}
\bibcite{wang2013rf}{{51}{2013}{{Wang et~al\mbox  {.}}}{{Wang, Adib, Knepper, Katabi, and Rus}}}
\bibcite{wang16:mobicom:lifs}{{52}{2016a}{{Wang et~al\mbox  {.}}}{{Wang, Jiang, Xiong, Jamieson, Chen, Fang, and Xie}}}
\bibcite{wang2013dude}{{53}{2013}{{Wang and Katabi}}{{Wang and Katabi}}}
\bibcite{wang2016device}{{54}{2016b}{{Wang et~al\mbox  {.}}}{{Wang, Liu, and Sun}}}
\bibcite{wang20:push}{{55}{2020}{{Wang et~al\mbox  {.}}}{{Wang, Shen, and Zheng}}}
\bibcite{wei2017celli}{{56}{2017}{{Wei et~al\mbox  {.}}}{{Wei, Huang, Tsai, and Lin}}}
\bibcite{welch1995introduction}{{57}{1995}{{Welch et~al\mbox  {.}}}{{Welch, Bishop, et~al\mbox  {.}}}}
\bibcite{wixey2020feasibility}{{58}{2020}{{Wixey et~al\mbox  {.}}}{{Wixey, De~Cristofaro, and Johnson}}}
\bibcite{xie2016lips}{{59}{2016}{{Xie et~al\mbox  {.}}}{{Xie, Chen, Tan, Lu, Liu, Wu, and He}}}
\bibcite{xiong2013arraytrack}{{60}{2013}{{Xiong and Jamieson}}{{Xiong and Jamieson}}}
\bibcite{xiong15:MobiCom:tonetrack}{{61}{2015}{{Xiong et~al\mbox  {.}}}{{Xiong, Sundaresan, and Jamieson}}}
\bibcite{xu::xuedge}{{62}{2020}{{Xu et~al\mbox  {.}}}{{Xu, Cao, Li, Huang, Qian, Shangguan, and Yang}}}
\bibcite{Yang20:InfoCom:RF-Ear}{{63}{2020}{{Yang et~al\mbox  {.}}}{{Yang, Feng, Xiong, Chen, and Li}}}
\bibcite{yuan2014localization}{{64}{2014}{{Yuan and Chen}}{{Yuan and Chen}}}
\bibcite{yun17:MobiSys:strata}{{65}{2017}{{Yun et~al\mbox  {.}}}{{Yun, Chen, Zheng, Qiu, and Mao}}}
\bibcite{zhang2016litell}{{66}{2016}{{Zhang and Zhang}}{{Zhang and Zhang}}}
\bibcite{zhang17:CCS:hearing}{{67}{2017}{{Zhang et~al\mbox  {.}}}{{Zhang, Tan, and Yang}}}
\bibcite{zhang2018vernier}{{68}{2018}{{Zhang et~al\mbox  {.}}}{{Zhang, Wang, Wang, Wang, and Liu}}}
\bibcite{zhao2019mid}{{69}{2019}{{Zhao et~al\mbox  {.}}}{{Zhao, Lu, Wang, Chen, Wang, Trigoni, and Markham}}}
\bibcite{zhou17:ENS:battracker}{{70}{2017}{{Zhou et~al\mbox  {.}}}{{Zhou, Elbadry, Gao, and Ye}}}
\bibcite{zhu2017enabling}{{71}{2017}{{Zhu and Zhang}}{{Zhu and Zhang}}}
\newlabel{tocindent-1}{0pt}
\newlabel{tocindent0}{0pt}
\newlabel{tocindent1}{4.65pt}
\newlabel{tocindent2}{11.49998pt}
\newlabel{tocindent3}{0pt}
\newlabel{TotPages}{{21}{21}{}{page.21}{}}
